…
## load example data set

votes <- read_csv(
  "https://archive.ics.uci.edu/ml/machine-learning-databases/voting-records/house-votes-84.data",
  col_types = cols(),
  col_names = c('party', paste0("v", 1:16))
) %>%
  print()
#> # A tibble: 435 x 17
#>    party v1    v2    v3    v4    v5    v6    v7    v8    v9    v10   v11   v12  
#>    <chr> <chr> <chr> <chr> <chr> <chr> <chr> <chr> <chr> <chr> <chr> <chr> <chr>
#>  1 repu~ n     y     n     y     y     y     n     n     n     y     ?     y    
#>  2 repu~ n     y     n     y     y     y     n     n     n     n     n     y    
#>  3 demo~ ?     y     y     ?     y     y     n     n     n     n     y     n    
#>  4 demo~ n     y     y     n     ?     y     n     n     n     n     y     n    
#>  5 demo~ y     y     y     n     y     y     n     n     n     n     y     ?    
#>  6 demo~ n     y     y     n     y     y     n     n     n     n     n     n    
#>  7 demo~ n     y     n     y     y     y     n     n     n     n     n     n    
#>  8 repu~ n     y     n     y     y     y     n     n     n     n     n     n    
#>  9 repu~ n     y     n     y     y     y     n     n     n     n     n     y    
#> 10 demo~ y     y     y     n     n     n     y     y     y     n     n     n    
#> # ... with 425 more rows, and 4 more variables: v13 <chr>, v14 <chr>,
#> #   v15 <chr>, v16 <chr>
```
…
``` r
votes <- votes %>%
  mutate_at(vars(v1:v16), 
    ~ recode(., 
      'y' = 1,
      'n' = 0,
      '?' = .5
    )
  ) %>%
  print()
#> # A tibble: 435 x 17
#>    party    v1    v2    v3    v4    v5    v6    v7    v8    v9   v10   v11   v12
#>    <chr> <dbl> <dbl> <dbl> <dbl> <dbl> <dbl> <dbl> <dbl> <dbl> <dbl> <dbl> <dbl>
#>  1 repu~   0       1     0   1     1       1     0     0     0     1   0.5   1  
#>  2 repu~   0       1     0   1     1       1     0     0     0     0   0     1  
#>  3 demo~   0.5     1     1   0.5   1       1     0     0     0     0   1     0  
#>  4 demo~   0       1     1   0     0.5     1     0     0     0     0   1     0  
#>  5 demo~   1       1     1   0     1       1     0     0     0     0   1     0.5
#>  6 demo~   0       1     1   0     1       1     0     0     0     0   0     0  
#>  7 demo~   0       1     0   1     1       1     0     0     0     0   0     0  
#>  8 repu~   0       1     0   1     1       1     0     0     0     0   0     0  
#>  9 repu~   0       1     0   1     1       1     0     0     0     0   0     1  
#> 10 demo~   1       1     1   0     0       0     1     1     1     0   0     0  
#> # ... with 425 more rows, and 4 more variables: v13 <dbl>, v14 <dbl>,
#> #   v15 <dbl>, v16 <dbl>
…
